^D:\STEP\ПРЕДМЕТЫ\WINAPI\ПРИМЕРЫ ДЛЯ СТУДЕНТОВ\BUTTONS\PUCTURE_BUTTON\PUCTURE_BUTTON\MAIN.CPP
/c /ZI /nologo /W3 /WX- /Od /Oy- /D WIN32 /D _DEBUG /D _WINDOWS /D _UNICODE /D UNICODE /Gm /EHsc /RTC1 /MDd /GS /fp:precise /Zc:wchar_t /Zc:forScope /Zc:inline /Fo"DEBUG\\" /Fd"DEBUG\VC140.PDB" /Gd /TP /analyze- D:\STEP\ПРЕДМЕТЫ\WINAPI\ПРИМЕРЫ ДЛЯ СТУДЕНТОВ\BUTTONS\PUCTURE_BUTTON\PUCTURE_BUTTON\MAIN.CPP
^C:\USERS\МАЙБА.НИКОЛАЙ\DESKTOP\PUCTURE_BUTTON\PUCTURE_BUTTON\MAIN.CPP
/c /ZI /nologo /W3 /WX- /Od /Oy- /D WIN32 /D _DEBUG /D _WINDOWS /D _UNICODE /D UNICODE /Gm /EHsc /RTC1 /MDd /GS /fp:precise /Zc:wchar_t /Zc:forScope /Zc:inline /Fo"DEBUG\\" /Fd"DEBUG\VC140.PDB" /Gd /TP /analyze- C:\USERS\МАЙБА.НИКОЛАЙ\DESKTOP\PUCTURE_BUTTON\PUCTURE_BUTTON\MAIN.CPP
