^D:\STEP\ПРЕДМЕТЫ\WINAPI\ПРИМЕРЫ ДЛЯ СТУДЕНТОВ\BUTTONS\PUCTURE_BUTTON\PUCTURE_BUTTON\DEBUG\MAIN.OBJ|D:\STEP\ПРЕДМЕТЫ\WINAPI\ПРИМЕРЫ ДЛЯ СТУДЕНТОВ\BUTTONS\PUCTURE_BUTTON\PUCTURE_BUTTON\DEBUG\PUCTURE_BUTTON.RES
D:\STEP\Предметы\WINAPI\Примеры для студентов\BUTTONS\PUCTURE_BUTTON\DEBUG\PUCTURE_BUTTON.EXE
D:\STEP\ПРЕДМЕТЫ\WINAPI\ПРИМЕРЫ ДЛЯ СТУДЕНТОВ\BUTTONS\PUCTURE_BUTTON\DEBUG\PUCTURE_BUTTON.PDB
^C:\USERS\МАЙБА.НИКОЛАЙ\DESKTOP\PUCTURE_BUTTON\PUCTURE_BUTTON\DEBUG\MAIN.OBJ|C:\USERS\МАЙБА.НИКОЛАЙ\DESKTOP\PUCTURE_BUTTON\PUCTURE_BUTTON\DEBUG\PUCTURE_BUTTON.RES
C:\USERS\Майба.Николай\DESKTOP\PUCTURE_BUTTON\DEBUG\PUCTURE_BUTTON.EXE
C:\USERS\МАЙБА.НИКОЛАЙ\DESKTOP\PUCTURE_BUTTON\DEBUG\PUCTURE_BUTTON.PDB
